{
    "BUILD": {
        "GAME_TITLE": "GAME TITLE",
        "VERSION": "0.0.1",
        "WIDTH": 889,
        "HEIGHT": 500,
        "MINIFIED_EXTERNAL_JS": false,
        "MINIFIED_EXTERNAL_JS_PATH": "./src/external/minified",
        "UNMINIFIED_EXTERNAL_JS_PATH": "./src/external/unminified",
        "EXTERNAL_JS": [
            "soundjs",
            "preloadjs"
        ],
		"ASSETPATH" : {
            "load" : "assets",
            "audio" : "assets/audio"
		}
    }
}